"id";"descripcion";"monto";"sucursal_id";"tipo_movimiento_id"
1;"Realizado en Liberia";60116.0;2;8
2;"Realizado en San José";34584.0;2;1
3;"Realizado en Alajuela";75947.0;6;1
4;"Realizado en Esparza";24987.0;6;10
5;"Realizado en Alajuela";87291.0;3;8
6;"Realizado en Aguas Zarcas";552.0;1;3
7;"Realizado en Aguas Zarcas";88551.0;4;3
8;"Realizado en Ciudad Quesada";67158.0;1;10
9;"Realizado en Ciudad Quesada";87398.0;5;1
10;"Realizado en Ciudad Quesada";28540.0;5;6
11;"Realizado en Aguas Zarcas";82667.0;4;3
12;"Realizado en Tamarindo";52994.0;6;7
13;"Realizado en San José";72829.0;6;9
14;"Realizado en Liberia";9909.0;4;4
15;"Realizado en Esparza";77334.0;4;7
16;"Realizado en Aguas Zarcas";92763.0;1;9
17;"Realizado en Tamarindo";83821.0;6;3
18;"Realizado en Liberia";73325.0;5;6
19;"Realizado en Alajuela";69797.0;1;8
20;"Realizado en Alajuela";13246.0;2;4
21;"Realizado en Tamarindo";29087.0;4;6
22;"Realizado en Alajuela";87474.0;3;9
23;"Realizado en Ciudad Quesada";58864.0;6;3
24;"Realizado en San José";82885.0;1;7
25;"Realizado en Liberia";34596.0;1;6
26;"Realizado en San José";31007.0;3;10
27;"Realizado en Aguas Zarcas";4603.0;5;10
28;"Realizado en Esparza";53214.0;1;2
29;"Realizado en Esparza";26282.0;1;6
30;"Realizado en Alajuela";82893.0;1;7
31;"Realizado en Ciudad Quesada";46715.0;3;8
32;"Realizado en Alajuela";27731.0;6;3
33;"Realizado en San José";52697.0;6;1
34;"Realizado en Liberia";98127.0;5;3
35;"Realizado en Ciudad Quesada";69374.0;4;6
36;"Realizado en Tamarindo";99790.0;5;3
37;"Realizado en Tamarindo";79720.0;5;9
38;"Realizado en Alajuela";5119.0;5;10
39;"Realizado en Aguas Zarcas";72822.0;5;8
40;"Realizado en Ciudad Quesada";89710.0;3;2
41;"Realizado en Tamarindo";82179.0;5;9
42;"Realizado en Esparza";31239.0;3;9
43;"Realizado en Ciudad Quesada";33259.0;3;6
44;"Realizado en Liberia";11960.0;6;9
45;"Realizado en Aguas Zarcas";60195.0;6;3
46;"Realizado en San José";38906.0;6;9
47;"Realizado en Ciudad Quesada";79479.0;6;9
48;"Realizado en Alajuela";54410.0;3;5
49;"Realizado en Alajuela";17753.0;3;10
50;"Realizado en Esparza";90929.0;4;8
51;"Realizado en Esparza";72068.0;6;6
52;"Realizado en Tamarindo";61958.0;6;10
53;"Realizado en Alajuela";5841.0;1;5
54;"Realizado en Liberia";81032.0;6;1
55;"Realizado en Liberia";1182.0;6;2
56;"Realizado en Aguas Zarcas";88441.0;3;1
57;"Realizado en Tamarindo";29837.0;5;10
58;"Realizado en Ciudad Quesada";76612.0;1;4
59;"Realizado en Ciudad Quesada";90113.0;6;3
60;"Realizado en Esparza";75040.0;4;4
61;"Realizado en Alajuela";69952.0;1;5
62;"Realizado en Esparza";83988.0;3;7
63;"Realizado en Tamarindo";92219.0;6;5
64;"Realizado en Esparza";77721.0;6;4
65;"Realizado en Tamarindo";43798.0;2;4
66;"Realizado en Ciudad Quesada";25997.0;1;3
67;"Realizado en San José";61452.0;3;7
68;"Realizado en Ciudad Quesada";83717.0;4;3
69;"Realizado en Aguas Zarcas";20661.0;3;4
70;"Realizado en Tamarindo";98209.0;5;10
71;"Realizado en Ciudad Quesada";80283.0;4;7
72;"Realizado en Aguas Zarcas";75837.0;6;6
73;"Realizado en San José";93436.0;4;6
74;"Realizado en Ciudad Quesada";73809.0;3;1
75;"Realizado en San José";76275.0;1;9
76;"Realizado en Aguas Zarcas";39482.0;1;9
77;"Realizado en Alajuela";70679.0;5;8
78;"Realizado en Alajuela";68516.0;6;6
79;"Realizado en San José";41606.0;4;10
80;"Realizado en Alajuela";98881.0;5;10
81;"Realizado en Alajuela";43668.0;2;3
82;"Realizado en Esparza";88586.0;3;4
83;"Realizado en Tamarindo";28129.0;3;8
84;"Realizado en Liberia";27741.0;1;7
85;"Realizado en San José";38880.0;3;10
86;"Realizado en Tamarindo";42267.0;5;9
87;"Realizado en Alajuela";86372.0;6;10
88;"Realizado en Tamarindo";21704.0;5;1
89;"Realizado en Esparza";1047.0;6;2
90;"Realizado en Esparza";99409.0;3;1
91;"Realizado en San José";10117.0;3;3
92;"Realizado en San José";41851.0;2;6
93;"Realizado en Tamarindo";16895.0;2;2
94;"Realizado en Aguas Zarcas";91532.0;6;4
95;"Realizado en San José";80663.0;5;2
96;"Realizado en Esparza";13520.0;2;6
97;"Realizado en Alajuela";12323.0;4;3
98;"Realizado en Esparza";82611.0;6;2
99;"Realizado en Tamarindo";86064.0;3;3
100;"Realizado en Liberia";90994.0;3;6
101;"Realizado en Alajuela";96943.0;5;9
102;"Realizado en Esparza";55425.0;4;3
103;"Realizado en San José";20321.0;5;9
104;"Realizado en Tamarindo";31870.0;6;1
105;"Realizado en Liberia";88307.0;5;6
106;"Realizado en Tamarindo";19856.0;6;1
107;"Realizado en Liberia";56645.0;2;1
108;"Realizado en Liberia";93792.0;2;6
109;"Realizado en San José";3390.0;5;5
110;"Realizado en Aguas Zarcas";94297.0;3;1
111;"Realizado en Aguas Zarcas";87101.0;6;9
112;"Realizado en Tamarindo";41329.0;3;8
113;"Realizado en Liberia";14256.0;4;3
114;"Realizado en Ciudad Quesada";25751.0;6;8
115;"Realizado en Esparza";63701.0;6;9
116;"Realizado en San José";62207.0;2;1
117;"Realizado en Liberia";49018.0;6;2
118;"Realizado en Ciudad Quesada";33700.0;3;9
119;"Realizado en Liberia";71555.0;1;3
120;"Realizado en Aguas Zarcas";72562.0;1;9
121;"Realizado en Aguas Zarcas";31956.0;5;3
122;"Realizado en Ciudad Quesada";92054.0;2;6
123;"Realizado en San José";72453.0;5;10
124;"Realizado en Aguas Zarcas";20892.0;5;7
125;"Realizado en San José";45800.0;6;3
126;"Realizado en Aguas Zarcas";94863.0;3;3
127;"Realizado en San José";7266.0;1;3
128;"Realizado en Esparza";66312.0;5;3
129;"Realizado en Ciudad Quesada";15243.0;1;6
130;"Realizado en San José";77817.0;6;1
131;"Realizado en Esparza";45588.0;2;2
132;"Realizado en Esparza";36171.0;5;3
133;"Realizado en Alajuela";44561.0;3;5
134;"Realizado en Alajuela";71007.0;2;4
135;"Realizado en Alajuela";38083.0;3;10
136;"Realizado en Tamarindo";27612.0;4;8
137;"Realizado en Ciudad Quesada";68974.0;4;9
138;"Realizado en Alajuela";4126.0;2;1
139;"Realizado en Tamarindo";59532.0;5;1
140;"Realizado en San José";59724.0;4;5
141;"Realizado en Aguas Zarcas";53967.0;1;6
142;"Realizado en Esparza";96693.0;5;6
143;"Realizado en Tamarindo";4184.0;5;7
144;"Realizado en Liberia";8789.0;2;6
145;"Realizado en Aguas Zarcas";54068.0;3;9
146;"Realizado en San José";58172.0;5;2
147;"Realizado en Liberia";62167.0;4;8
148;"Realizado en Alajuela";23180.0;4;8
149;"Realizado en Esparza";82928.0;5;1
150;"Realizado en Alajuela";72346.0;3;10
151;"Realizado en Tamarindo";9338.0;4;8
152;"Realizado en Tamarindo";27573.0;6;4
153;"Realizado en Tamarindo";85558.0;2;10
154;"Realizado en Liberia";62281.0;3;4
155;"Realizado en Aguas Zarcas";41247.0;6;10
156;"Realizado en Liberia";52492.0;1;2
157;"Realizado en Alajuela";79740.0;5;2
158;"Realizado en Esparza";55616.0;4;4
159;"Realizado en Aguas Zarcas";25984.0;2;8
160;"Realizado en Ciudad Quesada";97862.0;4;1
161;"Realizado en San José";36610.0;3;3
162;"Realizado en Aguas Zarcas";48489.0;2;9
163;"Realizado en San José";98555.0;1;4
164;"Realizado en San José";41910.0;5;10
165;"Realizado en Aguas Zarcas";88161.0;5;7
166;"Realizado en San José";55097.0;1;8
167;"Realizado en Alajuela";55124.0;4;10
168;"Realizado en Esparza";34897.0;2;9
169;"Realizado en Alajuela";19979.0;4;5
170;"Realizado en Tamarindo";37717.0;4;8
171;"Realizado en Aguas Zarcas";45942.0;2;4
172;"Realizado en Liberia";47878.0;4;8
173;"Realizado en San José";51405.0;1;1
174;"Realizado en San José";7536.0;6;9
175;"Realizado en Aguas Zarcas";70789.0;6;1
176;"Realizado en Alajuela";87886.0;6;10
177;"Realizado en San José";9724.0;3;10
178;"Realizado en Aguas Zarcas";70309.0;4;1
179;"Realizado en Esparza";49936.0;1;4
180;"Realizado en Aguas Zarcas";45730.0;1;8
181;"Realizado en Ciudad Quesada";39757.0;5;8
182;"Realizado en San José";40503.0;2;6
183;"Realizado en San José";2175.0;2;10
184;"Realizado en Esparza";76423.0;6;4
185;"Realizado en Ciudad Quesada";63466.0;5;7
186;"Realizado en Esparza";85466.0;1;6
187;"Realizado en Tamarindo";60260.0;3;9
188;"Realizado en Tamarindo";2871.0;3;7
189;"Realizado en Esparza";76936.0;3;6
190;"Realizado en San José";5715.0;2;8
191;"Realizado en Tamarindo";96637.0;6;6
192;"Realizado en Liberia";81320.0;4;2
193;"Realizado en Tamarindo";34152.0;1;6
194;"Realizado en Ciudad Quesada";71576.0;4;5
195;"Realizado en Tamarindo";89012.0;6;2
196;"Realizado en Tamarindo";16662.0;2;8
197;"Realizado en Liberia";64407.0;6;10
198;"Realizado en Liberia";432.0;1;9
199;"Realizado en Aguas Zarcas";68586.0;3;6
200;"Realizado en San José";31270.0;1;2
201;"Realizado en Alajuela";63961.0;5;5
202;"Realizado en Tamarindo";5584.0;6;2
203;"Realizado en Ciudad Quesada";68643.0;1;6
204;"Realizado en San José";65687.0;4;10
205;"Realizado en Alajuela";75494.0;6;9
206;"Realizado en Tamarindo";24976.0;3;8
207;"Realizado en Tamarindo";75807.0;3;9
208;"Realizado en Aguas Zarcas";91535.0;4;8
209;"Realizado en Ciudad Quesada";68147.0;5;9
210;"Realizado en Tamarindo";25846.0;3;10
211;"Realizado en Liberia";44181.0;4;8
212;"Realizado en San José";89793.0;2;2
213;"Realizado en Aguas Zarcas";19092.0;4;1
214;"Realizado en Esparza";88269.0;3;5
215;"Realizado en Ciudad Quesada";52783.0;6;6
216;"Realizado en San José";62817.0;4;8
217;"Realizado en Liberia";70576.0;5;7
218;"Realizado en Aguas Zarcas";88680.0;3;10
219;"Realizado en San José";10302.0;2;3
220;"Realizado en Esparza";58837.0;5;3
221;"Realizado en Ciudad Quesada";96176.0;4;9
222;"Realizado en Ciudad Quesada";72419.0;3;7
223;"Realizado en Ciudad Quesada";18279.0;6;2
224;"Realizado en San José";73212.0;1;5
225;"Realizado en Aguas Zarcas";2767.0;6;8
226;"Realizado en Alajuela";46365.0;1;1
227;"Realizado en Alajuela";90833.0;3;1
228;"Realizado en Aguas Zarcas";81761.0;1;1
229;"Realizado en Esparza";85468.0;1;9
230;"Realizado en Liberia";91353.0;1;5
231;"Realizado en Ciudad Quesada";93549.0;4;6
232;"Realizado en Liberia";31300.0;5;4
233;"Realizado en Ciudad Quesada";66830.0;4;10
234;"Realizado en Esparza";6984.0;6;8
235;"Realizado en Ciudad Quesada";5910.0;6;4
236;"Realizado en San José";34051.0;1;9
237;"Realizado en San José";30234.0;2;2
238;"Realizado en Liberia";19396.0;4;7
239;"Realizado en Aguas Zarcas";58253.0;4;1
240;"Realizado en Esparza";96060.0;4;1
241;"Realizado en Alajuela";52346.0;6;3
242;"Realizado en Alajuela";50319.0;3;6
243;"Realizado en Aguas Zarcas";76748.0;3;10
244;"Realizado en Aguas Zarcas";25597.0;2;10
245;"Realizado en Ciudad Quesada";96769.0;4;2
246;"Realizado en Ciudad Quesada";8712.0;4;4
247;"Realizado en Esparza";89732.0;6;5
248;"Realizado en Ciudad Quesada";27417.0;4;5
249;"Realizado en Liberia";91648.0;3;9
250;"Realizado en Alajuela";60094.0;2;3
251;"Realizado en Aguas Zarcas";97486.0;6;10
252;"Realizado en Liberia";89792.0;4;4
253;"Realizado en San José";59202.0;6;10
254;"Realizado en Alajuela";17195.0;3;7
255;"Realizado en Alajuela";64007.0;1;7
256;"Realizado en Liberia";27290.0;4;9
257;"Realizado en Ciudad Quesada";50947.0;4;1
258;"Realizado en San José";73564.0;1;1
259;"Realizado en San José";66313.0;2;1
260;"Realizado en Ciudad Quesada";39299.0;5;1
261;"Realizado en Ciudad Quesada";38035.0;1;8
262;"Realizado en Alajuela";11555.0;2;9
263;"Realizado en San José";19278.0;1;4
264;"Realizado en Ciudad Quesada";4774.0;1;4
265;"Realizado en Aguas Zarcas";1560.0;5;4
266;"Realizado en Liberia";44425.0;1;3
267;"Realizado en Alajuela";24060.0;1;10
268;"Realizado en Alajuela";47491.0;5;4
269;"Realizado en Esparza";57177.0;5;2
270;"Realizado en Alajuela";57026.0;6;5
271;"Realizado en Tamarindo";87434.0;3;9
272;"Realizado en Alajuela";84561.0;3;3
273;"Realizado en Tamarindo";8454.0;5;7
274;"Realizado en Aguas Zarcas";14177.0;1;8
275;"Realizado en Tamarindo";24327.0;1;4
276;"Realizado en Alajuela";6141.0;2;4
277;"Realizado en Alajuela";60902.0;3;6
278;"Realizado en Ciudad Quesada";4932.0;5;10
279;"Realizado en Alajuela";67856.0;5;8
280;"Realizado en Liberia";94884.0;1;3
281;"Realizado en San José";71959.0;5;10
282;"Realizado en Liberia";8114.0;4;10
283;"Realizado en San José";10792.0;1;3
284;"Realizado en Aguas Zarcas";3924.0;6;6
285;"Realizado en Liberia";78493.0;5;9
286;"Realizado en Ciudad Quesada";65387.0;6;3
287;"Realizado en Liberia";73035.0;1;8
288;"Realizado en Tamarindo";56541.0;1;8
289;"Realizado en Liberia";5923.0;3;3
290;"Realizado en Ciudad Quesada";2726.0;1;10
291;"Realizado en San José";9921.0;4;5
292;"Realizado en Alajuela";88574.0;5;6
293;"Realizado en Tamarindo";60297.0;1;6
294;"Realizado en Tamarindo";58665.0;1;6
295;"Realizado en Tamarindo";20694.0;4;8
296;"Realizado en Esparza";19633.0;5;7
297;"Realizado en San José";58.0;6;8
298;"Realizado en Ciudad Quesada";87641.0;5;9
299;"Realizado en Esparza";54519.0;4;6
300;"Realizado en San José";91846.0;6;10
301;"Realizado en Tamarindo";20658.0;3;5
302;"Realizado en Aguas Zarcas";57136.0;3;9
303;"Realizado en Alajuela";81077.0;4;1
304;"Realizado en Ciudad Quesada";98795.0;3;1
305;"Realizado en San José";99790.0;5;1
306;"Realizado en San José";51521.0;6;7
307;"Realizado en San José";67395.0;2;6
308;"Realizado en Liberia";51958.0;1;6
309;"Realizado en Tamarindo";76512.0;6;3
310;"Realizado en Esparza";85025.0;3;5
311;"Realizado en Liberia";93643.0;3;2
312;"Realizado en Alajuela";64057.0;5;3
313;"Realizado en Liberia";33757.0;1;8
314;"Realizado en Ciudad Quesada";77227.0;1;3
315;"Realizado en Ciudad Quesada";74749.0;1;6
316;"Realizado en Liberia";39803.0;3;8
317;"Realizado en Ciudad Quesada";35945.0;3;7
318;"Realizado en Esparza";48091.0;2;3
319;"Realizado en Alajuela";79168.0;4;3
320;"Realizado en Tamarindo";21282.0;4;10
321;"Realizado en San José";7169.0;4;2
322;"Realizado en Ciudad Quesada";79188.0;4;10
323;"Realizado en Liberia";4266.0;5;3
324;"Realizado en San José";71346.0;4;4
325;"Realizado en Aguas Zarcas";50724.0;1;6
326;"Realizado en Esparza";50925.0;2;3
327;"Realizado en Liberia";26680.0;1;2
328;"Realizado en Aguas Zarcas";26923.0;6;4
329;"Realizado en Esparza";43258.0;2;8
330;"Realizado en Liberia";2809.0;4;6
331;"Realizado en Tamarindo";81613.0;1;1
332;"Realizado en Tamarindo";36316.0;3;9
333;"Realizado en San José";5410.0;4;10
334;"Realizado en Liberia";22556.0;6;4
335;"Realizado en Alajuela";27554.0;4;2
336;"Realizado en Esparza";93109.0;2;4
337;"Realizado en Alajuela";53314.0;5;3
338;"Realizado en Ciudad Quesada";13222.0;6;4
339;"Realizado en Liberia";27354.0;2;6
340;"Realizado en Ciudad Quesada";78378.0;5;5
341;"Realizado en Aguas Zarcas";13964.0;6;9
342;"Realizado en Ciudad Quesada";16476.0;4;10
343;"Realizado en Esparza";63549.0;2;4
344;"Realizado en San José";69382.0;2;3
345;"Realizado en San José";5872.0;1;4
346;"Realizado en Esparza";2438.0;3;5
347;"Realizado en Esparza";83996.0;3;4
348;"Realizado en Tamarindo";53215.0;5;6
349;"Realizado en Tamarindo";74946.0;2;2
350;"Realizado en Ciudad Quesada";40171.0;6;5
351;"Realizado en Ciudad Quesada";90049.0;4;4
352;"Realizado en Liberia";86623.0;4;5
353;"Realizado en Aguas Zarcas";88984.0;4;3
354;"Realizado en Tamarindo";11745.0;4;5
355;"Realizado en Esparza";99047.0;4;1
356;"Realizado en Esparza";88279.0;4;1
357;"Realizado en Aguas Zarcas";55556.0;2;5
358;"Realizado en San José";75722.0;4;7
359;"Realizado en Aguas Zarcas";61257.0;4;1
360;"Realizado en San José";26565.0;1;10
361;"Realizado en Aguas Zarcas";34677.0;5;9
362;"Realizado en Alajuela";87498.0;4;2
363;"Realizado en Ciudad Quesada";21083.0;5;2
364;"Realizado en Liberia";62227.0;4;6
365;"Realizado en Alajuela";15543.0;5;9
366;"Realizado en Tamarindo";25803.0;2;1
367;"Realizado en Liberia";49532.0;4;4
368;"Realizado en Ciudad Quesada";19333.0;6;4
369;"Realizado en Alajuela";99599.0;2;10
370;"Realizado en Alajuela";10306.0;5;3
371;"Realizado en Liberia";79124.0;1;2
372;"Realizado en Aguas Zarcas";87197.0;5;10
373;"Realizado en Alajuela";72365.0;5;4
374;"Realizado en Aguas Zarcas";22957.0;1;6
375;"Realizado en Esparza";5763.0;1;3
376;"Realizado en Tamarindo";29297.0;3;5
377;"Realizado en Esparza";92875.0;1;10
378;"Realizado en San José";34544.0;3;9
379;"Realizado en Ciudad Quesada";67779.0;1;2
380;"Realizado en Aguas Zarcas";98097.0;4;5
381;"Realizado en Ciudad Quesada";40444.0;4;3
382;"Realizado en Aguas Zarcas";41585.0;3;3
383;"Realizado en Esparza";60576.0;6;7
384;"Realizado en San José";86873.0;2;2
385;"Realizado en Alajuela";84.0;6;6
386;"Realizado en Alajuela";12676.0;3;2
387;"Realizado en San José";40811.0;4;7
388;"Realizado en Alajuela";35245.0;5;10
389;"Realizado en Tamarindo";12966.0;2;2
390;"Realizado en Alajuela";37695.0;1;4
391;"Realizado en Liberia";62919.0;6;6
392;"Realizado en Esparza";66724.0;1;1
393;"Realizado en Ciudad Quesada";37394.0;6;6
394;"Realizado en Liberia";93468.0;3;4
395;"Realizado en Ciudad Quesada";68494.0;1;10
396;"Realizado en San José";90017.0;5;2
397;"Realizado en Aguas Zarcas";52823.0;5;9
398;"Realizado en Tamarindo";71361.0;4;3
399;"Realizado en Esparza";17451.0;3;8
400;"Realizado en Aguas Zarcas";34939.0;6;3
401;"Realizado en San José";33851.0;2;5
402;"Realizado en Liberia";80825.0;4;4
403;"Realizado en Tamarindo";95945.0;6;1
404;"Realizado en San José";95847.0;3;6
405;"Realizado en Liberia";20535.0;1;10
406;"Realizado en Ciudad Quesada";47652.0;2;5
407;"Realizado en Alajuela";61658.0;3;1
408;"Realizado en Esparza";1493.0;6;1
409;"Realizado en Tamarindo";15090.0;5;7
410;"Realizado en Aguas Zarcas";25884.0;4;3
411;"Realizado en Esparza";38087.0;1;6
412;"Realizado en Alajuela";74225.0;3;1
413;"Realizado en Ciudad Quesada";7577.0;3;3
414;"Realizado en Liberia";1314.0;1;6
415;"Realizado en Liberia";10399.0;6;7
416;"Realizado en Alajuela";23393.0;4;5
417;"Realizado en Ciudad Quesada";92408.0;4;10
418;"Realizado en Liberia";9700.0;4;3
419;"Realizado en Esparza";41762.0;1;6
420;"Realizado en San José";78882.0;4;3
421;"Realizado en Liberia";9033.0;1;9
422;"Realizado en Ciudad Quesada";84996.0;1;5
423;"Realizado en Aguas Zarcas";19185.0;3;7
424;"Realizado en Liberia";98910.0;4;2
425;"Realizado en San José";33515.0;1;4
426;"Realizado en San José";30411.0;3;6
427;"Realizado en Ciudad Quesada";6991.0;3;4
428;"Realizado en Esparza";76423.0;2;3
429;"Realizado en Liberia";52758.0;3;8
430;"Realizado en Liberia";42040.0;4;2
431;"Realizado en San José";12804.0;6;10
432;"Realizado en Esparza";18615.0;2;7
433;"Realizado en Tamarindo";52657.0;1;1
434;"Realizado en San José";12009.0;6;7
435;"Realizado en San José";24280.0;6;4
436;"Realizado en Aguas Zarcas";87421.0;5;7
437;"Realizado en Liberia";71529.0;3;8
438;"Realizado en Alajuela";56007.0;4;1
439;"Realizado en Esparza";68419.0;5;1
440;"Realizado en Tamarindo";93256.0;3;3
441;"Realizado en Alajuela";39868.0;4;9
442;"Realizado en Esparza";67999.0;3;8
443;"Realizado en Tamarindo";57082.0;3;2
444;"Realizado en Aguas Zarcas";59270.0;1;9
445;"Realizado en Ciudad Quesada";53456.0;3;9
446;"Realizado en San José";63372.0;5;7
447;"Realizado en Esparza";1676.0;4;8
448;"Realizado en Esparza";5658.0;3;10
449;"Realizado en Alajuela";94732.0;1;7
450;"Realizado en Alajuela";84488.0;1;5
451;"Realizado en Liberia";89483.0;3;3
452;"Realizado en San José";74449.0;1;3
453;"Realizado en San José";36420.0;5;1
454;"Realizado en Liberia";16786.0;1;10
455;"Realizado en Liberia";59733.0;3;10
456;"Realizado en Esparza";47480.0;1;3
457;"Realizado en Aguas Zarcas";93408.0;3;7
458;"Realizado en Tamarindo";52086.0;3;7
459;"Realizado en Tamarindo";64011.0;1;7
460;"Realizado en Liberia";95338.0;3;3
461;"Realizado en Esparza";98812.0;4;10
462;"Realizado en Liberia";87868.0;1;10
463;"Realizado en Alajuela";76546.0;1;4
464;"Realizado en Tamarindo";86822.0;5;4
465;"Realizado en San José";59485.0;4;1
466;"Realizado en Aguas Zarcas";89263.0;5;9
467;"Realizado en Tamarindo";4454.0;5;1
468;"Realizado en Aguas Zarcas";80442.0;2;10
469;"Realizado en Alajuela";70328.0;1;4
470;"Realizado en San José";1089.0;4;6
471;"Realizado en Ciudad Quesada";14483.0;4;1
472;"Realizado en Esparza";25968.0;4;6
473;"Realizado en Ciudad Quesada";52765.0;3;6
474;"Realizado en Aguas Zarcas";38926.0;2;4
475;"Realizado en Ciudad Quesada";72322.0;4;2
476;"Realizado en San José";44485.0;1;2
477;"Realizado en Alajuela";58953.0;1;4
478;"Realizado en Tamarindo";40694.0;2;6
479;"Realizado en Aguas Zarcas";61721.0;1;2
480;"Realizado en Ciudad Quesada";46309.0;3;6
481;"Realizado en Alajuela";68277.0;1;3
482;"Realizado en Esparza";57682.0;6;5
483;"Realizado en Esparza";59578.0;6;4
484;"Realizado en Aguas Zarcas";75197.0;5;6
485;"Realizado en Liberia";40895.0;4;6
486;"Realizado en Alajuela";19053.0;1;3
487;"Realizado en Esparza";92259.0;6;1
488;"Realizado en Ciudad Quesada";6334.0;5;7
489;"Realizado en Alajuela";2504.0;3;1
490;"Realizado en Liberia";69305.0;6;8
491;"Realizado en Esparza";47331.0;5;2
492;"Realizado en Liberia";97464.0;3;7
493;"Realizado en Alajuela";76365.0;3;6
494;"Realizado en Alajuela";36874.0;5;4
495;"Realizado en Esparza";39584.0;1;4
496;"Realizado en Alajuela";6905.0;2;8
497;"Realizado en Esparza";74837.0;3;5
498;"Realizado en Liberia";27593.0;5;6
499;"Realizado en Aguas Zarcas";67965.0;1;10
500;"Realizado en Ciudad Quesada";28465.0;3;5
